{
	"info": {
		"_postman_id": "5458ef14-b760-4507-9311-403c798f7808",
		"name": "ejercicios",
		"schema": "https://schema.getpostman.com/json/collection/v2.1.0/collection.json"
	},
	"item": [
		{
			"name": "nuevoproducto",
			"request": {
				"method": "POST",
				"header": [],
				"body": {
					"mode": "raw",
					"raw": "{\r\n   \"id\": 1 ,\r\n    \"descripcion\":\"poducto uno 001\",\r\n   \"precio\": 25.00\r\n}",
					"options": {
						"raw": {
							"language": "json"
						}
					}
				},
				"url": {
					"raw": "http://localhost:8081/apitechu/v1/productos",
					"protocol": "http",
					"host": [
						"localhost"
					],
					"port": "8081",
					"path": [
						"apitechu",
						"v1",
						"productos"
					]
				}
			},
			"response": []
		},
		{
			"name": "nuevoproducto Copy",
			"request": {
				"method": "POST",
				"header": [],
				"body": {
					"mode": "raw",
					"raw": "{\r\n   \"id\": 2 ,\r\n    \"descripcion\":\"poducto dos 2\",\r\n   \"precio\": 30,00,\r\n  \"users\":[\"1\", \"3\",\"5\"] \r\n}\r\n",
					"options": {
						"raw": {
							"language": "json"
						}
					}
				},
				"url": {
					"raw": "http://localhost:8081/apitechu/v1/productos",
					"protocol": "http",
					"host": [
						"localhost"
					],
					"port": "8081",
					"path": [
						"apitechu",
						"v1",
						"productos"
					]
				}
			},
			"response": []
		},
		{
			"name": "get productos",
			"protocolProfileBehavior": {
				"disableBodyPruning": true
			},
			"request": {
				"method": "GET",
				"header": [],
				"body": {
					"mode": "raw",
					"raw": "\r\n\r\n",
					"options": {
						"raw": {
							"language": "json"
						}
					}
				},
				"url": {
					"raw": "http://localhost:8081/apitechu/v1/productos",
					"protocol": "http",
					"host": [
						"localhost"
					],
					"port": "8081",
					"path": [
						"apitechu",
						"v1",
						"productos"
					]
				}
			},
			"response": []
		},
		{
			"name": "get saludos con parametro Copy",
			"protocolProfileBehavior": {
				"disableBodyPruning": true
			},
			"request": {
				"method": "GET",
				"header": [],
				"body": {
					"mode": "raw",
					"raw": "   {\r\n       \"id\": 1,\r\n       \r\n\r\n\r\n   }\r\n   private long id;\r\n    private String descripcion;\r\n    private double precio;\r\n    private List<UserModel> users;",
					"options": {
						"raw": {
							"language": "json"
						}
					}
				},
				"url": {
					"raw": "http://localhost:8081/apitechu/v1/productos?1",
					"protocol": "http",
					"host": [
						"localhost"
					],
					"port": "8081",
					"path": [
						"apitechu",
						"v1",
						"productos"
					],
					"query": [
						{
							"key": "1",
							"value": null
						}
					]
				}
			},
			"response": []
		},
		{
			"name": "producto 1",
			"request": {
				"method": "PUT",
				"header": [],
				"url": {
					"raw": "http://localhost:8081/apitechu/v1/productos?1",
					"protocol": "http",
					"host": [
						"localhost"
					],
					"port": "8081",
					"path": [
						"apitechu",
						"v1",
						"productos"
					],
					"query": [
						{
							"key": "1",
							"value": null
						}
					]
				}
			},
			"response": []
		},
		{
			"name": "delete producto 3",
			"request": {
				"method": "DELETE",
				"header": [],
				"url": {
					"raw": "http://localhost:8081/apitechu/v1/productos/3",
					"protocol": "http",
					"host": [
						"localhost"
					],
					"port": "8081",
					"path": [
						"apitechu",
						"v1",
						"productos",
						"3"
					]
				}
			},
			"response": []
		},
		{
			"name": "producto 2",
			"request": {
				"method": "PATCH",
				"header": [],
				"body": {
					"mode": "raw",
					"raw": "{\r\n    \"id\": 2,\r\n    \"descripcion\":\"poducto dos dos\",\r\n   \"precio\": 500.00,\r\n  \"users\":[\"1\", \"3\",\"5\"] \r\n}",
					"options": {
						"raw": {
							"language": "json"
						}
					}
				},
				"url": {
					"raw": "http://localhost:8081/apitechu/v1/productos/2",
					"protocol": "http",
					"host": [
						"localhost"
					],
					"port": "8081",
					"path": [
						"apitechu",
						"v1",
						"productos",
						"2"
					]
				}
			},
			"response": []
		},
		{
			"name": "subproductos",
			"request": {
				"method": "GET",
				"header": [],
				"url": {
					"raw": "http://localhost:8081/apitechu/v1/productos/1/users",
					"protocol": "http",
					"host": [
						"localhost"
					],
					"port": "8081",
					"path": [
						"apitechu",
						"v1",
						"productos",
						"1",
						"users"
					]
				}
			},
			"response": []
		}
	]
}